IOExample_main -> Machine_cycle
Machine_cycle -> Machine_isBatteryCritical
Machine_cycle -> Machine_isOff
Machine_cycle -> Machine_useMax
Machine_isBatteryCritical -> Machine_isLess
Machine_isOff -> Machine_isLess
Machine_useMax -> Machine_subtract
Machine_useMax -> Machine_useMax
